<?xml version="1.0" encoding="UTF-8" standalone="no"?>
<!-- Generator: Adobe Illustrator 26.0.1, SVG Export Plug-In . SVG Version: 6.00 Build 0)  -->

<svg
   version="1.1"
   id="Layer_1"
   x="0px"
   y="0px"
   viewBox="0 0 64.201044 64.201042"
   xml:space="preserve"
   sodipodi:docname="header_logo.svg"
   width="64.201042"
   height="64.201042"
   inkscape:version="1.2.1 (9c6d41e410, 2022-07-14)"
   xmlns:inkscape="http://www.inkscape.org/namespaces/inkscape"
   xmlns:sodipodi="http://sodipodi.sourceforge.net/DTD/sodipodi-0.dtd"
   xmlns="http://www.w3.org/2000/svg"
   xmlns:svg="http://www.w3.org/2000/svg"><defs
   id="defs241" /><sodipodi:namedview
   id="namedview239"
   pagecolor="#ffffff"
   bordercolor="#000000"
   borderopacity="0.25"
   inkscape:showpageshadow="2"
   inkscape:pageopacity="0.0"
   inkscape:pagecheckerboard="0"
   inkscape:deskcolor="#d1d1d1"
   showgrid="false"
   inkscape:zoom="3.8537723"
   inkscape:cx="171.52025"
   inkscape:cy="32.046522"
   inkscape:window-width="1920"
   inkscape:window-height="1005"
   inkscape:window-x="0"
   inkscape:window-y="0"
   inkscape:window-maximized="1"
   inkscape:current-layer="Layer_1" />
<style
   type="text/css"
   id="style2">
	.st0{fill:url(#SVGID_1_);}
	.st1{fill:url(#SVGID_00000012439321339344112220000017563212767678299808_);}
	.st2{opacity:0.4;fill:url(#SVGID_00000108284632924612745140000009327317909255578026_);enable-background:new    ;}
	.st3{fill:#FFFFFF;}
	.st4{opacity:0.4;fill:url(#SVGID_00000065756628861291077180000013392903756141613731_);enable-background:new    ;}
	.st5{fill:#565F64;}
	.st6{fill:url(#SVGID_00000127016963991366057030000011348966280631035054_);}
	.st7{fill:#A4AAAE;fill-opacity:0.6;}
	.st8{fill:#333E46;}
	.st9{fill:url(#SVGID_00000159433806168595900260000001600477186116212668_);}
	.st10{fill:url(#SVGID_00000128465197879287723780000011625087054351903679_);fill-opacity:0.8;}
	.st11{opacity:0.8;fill:url(#SVGID_00000081632528503517631430000003826235288446218415_);enable-background:new    ;}
	.st12{fill:url(#SVGID_00000118366136485127171830000008775944424709333941_);}
	.st13{fill:url(#SVGID_00000170247278740228110260000008437782502945766575_);}
	.st14{fill:url(#SVGID_00000083809163378059033480000007908445136456498049_);}
	.st15{fill:url(#SVGID_00000155835924885628481740000010358707160270132135_);}
	.st16{fill:url(#SVGID_00000154385037270168071700000000736716790578145211_);}
	.st17{fill:url(#SVGID_00000052815310869637856570000011315792689300835497_);}
	.st18{fill:#FBFBFB;}
	.st19{fill:#333F47;}
</style>
<g
   id="g212"
   transform="translate(5.2129474e-4,-0.39947871)">
	
		<linearGradient
   id="SVGID_1_"
   gradientUnits="userSpaceOnUse"
   x1="8.0984001"
   y1="-3805.3086"
   x2="56.158401"
   y2="-3845.5386"
   gradientTransform="matrix(1,0,0,-1,-0.2,-3792.8999)">
		<stop
   offset="0"
   style="stop-color:#FFFFFF"
   id="stop4" />
		<stop
   offset="0.1"
   style="stop-color:#E7E8E6"
   id="stop6" />
		<stop
   offset="0.1"
   style="stop-color:#CDD0D0"
   id="stop8" />
		<stop
   offset="0.2"
   style="stop-color:#B5BBBD"
   id="stop10" />
		<stop
   offset="0.2"
   style="stop-color:#A5ACAF"
   id="stop12" />
		<stop
   offset="0.3"
   style="stop-color:#9BA3A7"
   id="stop14" />
		<stop
   offset="0.3"
   style="stop-color:#98A0A4"
   id="stop16" />
		<stop
   offset="0.4"
   style="stop-color:#828A8F"
   id="stop18" />
		<stop
   offset="0.5"
   style="stop-color:#667075"
   id="stop20" />
		<stop
   offset="0.6"
   style="stop-color:#535C63"
   id="stop22" />
		<stop
   offset="0.7"
   style="stop-color:#475158"
   id="stop24" />
		<stop
   offset="0.8"
   style="stop-color:#434D54"
   id="stop26" />
		<stop
   offset="1"
   style="stop-color:#475157"
   id="stop28" />
	</linearGradient>
	<path
   class="st0"
   d="m 63.2,32.5 c 0,17.3 -14,31.3 -31.3,31.3 C 14.6,63.8 0.6,49.8 0.6,32.5 0.6,15.2 14.6,1.2 31.9,1.2 v 0 c 17.3,0 31.3,14 31.3,31.3 z M 31.9,3 C 15.6,3 2.4,16.2 2.4,32.5 2.4,48.8 15.6,62 31.9,62 48.2,62 61.4,48.8 61.4,32.5 v 0 C 61.5,16.3 48.5,3.1 32.3,3 c 0,0 0,0 0,0 z"
   id="path31"
   style="fill:url(#SVGID_1_)" />
	
		<linearGradient
   id="SVGID_00000114051361990616368320000010713722221932447361_"
   gradientUnits="userSpaceOnUse"
   x1="9.6997004"
   y1="-3806.5203"
   x2="54.689701"
   y2="-3844.3303"
   gradientTransform="matrix(1,0,0,-1,-0.2,-3792.8999)">
		<stop
   offset="0"
   style="stop-color:#0B1F2A"
   id="stop33" />
		<stop
   offset="0.2"
   style="stop-color:#333F47"
   id="stop35" />
		<stop
   offset="0.5"
   style="stop-color:#777F84"
   id="stop37" />
		<stop
   offset="0.5"
   style="stop-color:#81898D"
   id="stop39" />
		<stop
   offset="0.7"
   style="stop-color:#B3B8B8"
   id="stop41" />
		<stop
   offset="0.8"
   style="stop-color:#D2D5D3"
   id="stop43" />
		<stop
   offset="0.8"
   style="stop-color:#DEE0DD"
   id="stop45" />
		<stop
   offset="1"
   style="stop-color:#FBFBFB"
   id="stop47" />
	</linearGradient>
	<path
   style="fill:url(#SVGID_00000114051361990616368320000010713722221932447361_)"
   d="M 31.9,3 C 15.6,3 2.4,16.2 2.4,32.5 2.4,48.8 15.6,62 31.9,62 48.2,62 61.4,48.8 61.4,32.5 v 0 C 61.5,16.3 48.5,3.1 32.3,3 c 0,0 0,0 0,0 z m 0,57.1 C 16.7,60.1 4.3,47.7 4.3,32.5 4.3,17.3 16.7,4.9 31.9,4.9 c 15.2,0 27.6,12.4 27.6,27.6 v 0 0 C 59.4,47.7 47.1,60 31.9,60.1 Z"
   id="path50" />
	
		<linearGradient
   id="SVGID_00000090263473349488347930000011316681643995398543_"
   gradientUnits="userSpaceOnUse"
   x1="-1783.479"
   y1="2331.1724"
   x2="-1761.5195"
   y2="2270.8262"
   gradientTransform="matrix(-1,0,0,1,-1740.3999,-2268.5)">
		<stop
   offset="0"
   style="stop-color:#E1E3E1"
   id="stop52" />
		<stop
   offset="0.1"
   style="stop-color:#C1C5C4"
   id="stop54" />
		<stop
   offset="0.3"
   style="stop-color:#9BA1A2"
   id="stop56" />
		<stop
   offset="0.5"
   style="stop-color:#7D8487"
   id="stop58" />
		<stop
   offset="0.7"
   style="stop-color:#687074;stop-opacity:0"
   id="stop60" />
		<stop
   offset="0.8"
   style="stop-color:#5B6469;stop-opacity:0"
   id="stop62" />
		<stop
   offset="1"
   style="stop-color:#576065;stop-opacity:0"
   id="stop64" />
	</linearGradient>
	<path
   style="opacity:0.4;fill:url(#SVGID_00000090263473349488347930000011316681643995398543_);enable-background:new"
   d="m 31.9,63.8 c 17.3,0 31.3,-14 31.3,-31.3 C 63.2,15.2 49.2,1.2 31.9,1.2 14.6,1.2 0.6,15.2 0.6,32.5 v 0 c 0,17.3 14,31.3 31.3,31.3 z m 0,-63.4 C 49.6,0.3 64.1,14.6 64.2,32.3 64.3,50 50,64.5 32.3,64.6 14.6,64.7 0.1,50.4 0,32.7 v 0 C -0.1,15 14.2,0.5 31.9,0.4 c 0,0 0,0 0,0 z"
   id="path67" />
	<path
   class="st3"
   d="M 2.1,32.7 C 2,16.3 15.3,3 31.7,2.9 c 0.1,0 0.1,0 0.2,0 v 0 c 16.4,-0.1 29.7,13.2 29.8,29.6 0,0.1 0,0.1 0,0.2 v 0 C 61.5,49 48.2,62.2 31.9,62.3 v 0 C 15.6,62.2 2.3,49 2.1,32.7 Z M 11.4,12 C 6,17.5 2.9,25 2.8,32.7 v 0 c 0,7.7 3,15 8.5,20.4 v 0 c 5.5,5.5 12.9,8.5 20.6,8.5 v 0 c 7.7,0 15.1,-3 20.5,-8.5 v 0 c 5.4,-5.4 8.4,-12.8 8.4,-20.4 v 0 C 60.6,25 57.6,17.7 52.4,12 v 0 C 46.9,6.6 39.6,3.5 31.9,3.4 v 0 C 24.2,3.4 16.8,6.5 11.4,12 Z"
   id="path69" />
	
		<linearGradient
   id="SVGID_00000096033491903856927000000012141874083126145974_"
   gradientUnits="userSpaceOnUse"
   x1="18.477699"
   y1="-3801.5457"
   x2="46.050999"
   y2="-3849.3167"
   gradientTransform="matrix(1,0,0,-1,-0.2,-3792.8999)">
		<stop
   offset="0"
   style="stop-color:#E1E3E1"
   id="stop71" />
		<stop
   offset="0.1"
   style="stop-color:#C1C5C4"
   id="stop73" />
		<stop
   offset="0.3"
   style="stop-color:#9BA1A2"
   id="stop75" />
		<stop
   offset="0.5"
   style="stop-color:#7D8487"
   id="stop77" />
		<stop
   offset="0.7"
   style="stop-color:#687074;stop-opacity:0"
   id="stop79" />
		<stop
   offset="0.8"
   style="stop-color:#5B6469;stop-opacity:0"
   id="stop81" />
		<stop
   offset="1"
   style="stop-color:#576065;stop-opacity:0"
   id="stop83" />
	</linearGradient>
	<path
   style="opacity:0.4;fill:url(#SVGID_00000096033491903856927000000012141874083126145974_);enable-background:new"
   d="M 31.9,60.1 C 16.7,60 4.4,47.7 4.3,32.5 4.2,25.2 7.2,18.1 12.4,13 23.2,2.1 40.7,2 51.6,12.8 c 0,0 0,0 0,0 10.7,10.9 10.7,28.3 0,39.2 h -0.2 c -5.2,5.1 -12.2,8 -19.5,8.1 z m 0,-0.8 C 46.6,58 57.6,45 56.3,30.3 55.2,17.3 44.9,7 31.9,5.9 24.8,5.8 18.1,8.7 13.1,13.7 7.9,18.6 5,25.4 5.1,32.5 c 0,14.8 12,26.8 26.8,26.8 0,0 0,0 0,0 z"
   id="path86" />
	<path
   class="st3"
   d="M 56.3,45.4 36.4,29.9 31.9,4.2 C 31.5,4.3 31.2,4.6 31,4.9 L 27.8,29.9 7.9,45.3 7.3,46 c -0.1,0.2 -0.2,0.5 -0.2,0.8 v 0 L 31.7,36.6 56.5,46.8 v 0 c 0,-0.5 -0.1,-0.9 -0.2,-1.4 z"
   id="path88" />
	<path
   class="st5"
   d="m 32.1,33.3 v 4.6 l 22.5,9.2 c 0.7,0.5 1.5,0.4 2.1,-0.2 L 32.5,33.4 c -0.2,-0.3 -0.2,-0.1 -0.4,-0.1 z"
   id="path90" />
	
		<linearGradient
   id="SVGID_00000157279884126581020220000013640103569357625789_"
   gradientUnits="userSpaceOnUse"
   x1="44.573101"
   y1="-3832.8303"
   x2="42.863098"
   y2="-3835.6304"
   gradientTransform="matrix(1,0,0,-1,-0.2,-3792.8999)">
		<stop
   offset="0"
   style="stop-color:#27343C"
   id="stop92" />
		<stop
   offset="1"
   style="stop-color:#00111E;stop-opacity:0"
   id="stop94" />
	</linearGradient>
	<path
   style="fill:url(#SVGID_00000157279884126581020220000013640103569357625789_)"
   d="m 32.1,33.3 c 0.8,1.4 1.7,2.7 2.8,3.9 1.5,1.5 3.1,2.8 4.9,3.9 l 14.6,5.8 c 0.6,0.5 1.5,0.4 2.1,-0.1 l -24,-13.5 c -0.2,-0.2 -0.2,0 -0.4,0 z"
   id="path97" />
	<path
   class="st7"
   d="m 56.5,45.8 c 0,-0.2 -0.2,-0.2 -0.2,-0.4 l -20.6,-15 -2.9,1.9 h 0.4 c 0.5,-0.2 1,-0.2 1.5,0 0.4,0.2 21.8,13.7 21.8,13.5 z"
   id="path99" />
	<path
   class="st8"
   d="M 55.7,45.1 36.6,29.9 v 0 l -0.9,0.5 20.6,15.2 z"
   id="path101" />
	<path
   class="st5"
   d="m 32.5,31.7 v 0 c -0.2,0.2 -0.2,0.4 0.2,0.2 L 36.6,29.7 33,5.9 C 33,5.2 32.6,4.5 31.9,4.2 l 0.4,27.7 z"
   id="path103" />
	<path
   class="st7"
   d="m 30.8,5.9 v 1.3 l -2.3,22.1 c 0,0.3 0.2,0.6 0.4,0.8 L 30.2,31 31.1,6.6 V 4.7 C 30.8,5 30.7,5.5 30.8,5.9 Z"
   id="path105" />
	<path
   class="st7"
   d="m 29.5,31.4 -1.2,-1 -20.2,14.7 c -0.3,0.1 -0.6,0.4 -0.8,0.7 v 0 l 0.8,-0.4 v 0 L 29.5,32.1 c 0.1,-0.2 0.3,-0.4 0,-0.7 z"
   id="path107" />
	<path
   class="st5"
   d="m 31.7,33.3 c 0,-0.2 0,-0.2 -0.2,-0.2 v 0 L 7.3,46.9 c 0.6,0.5 1.4,0.5 2.1,0.2 l 22.5,-9.2 z"
   id="path109" />
	
		<linearGradient
   id="SVGID_00000033370965923105870410000000039807454710606490_"
   gradientUnits="userSpaceOnUse"
   x1="39.746899"
   y1="-3822.5833"
   x2="36.936901"
   y2="-3818.0833"
   gradientTransform="matrix(1,0,0,-1,-0.2,-3792.8999)">
		<stop
   offset="0.1"
   style="stop-color:#02131F"
   id="stop111" />
		<stop
   offset="0.9"
   style="stop-color:#02131F;stop-opacity:0"
   id="stop113" />
	</linearGradient>
	<path
   style="fill:url(#SVGID_00000033370965923105870410000000039807454710606490_)"
   d="m 32.3,31.9 h 0.2 l 3.9,-2 -0.4,-2.8 v 0 L 33,5.9 c 0,-0.4 -0.1,-0.7 -0.3,-1 0,0 1.5,20.3 1.5,22.3 0,1.8 -0.7,3.4 -1.9,4.7 z"
   id="path116" />
	
		<linearGradient
   id="SVGID_00000047053199129369887990000001684073674508943001_"
   gradientUnits="userSpaceOnUse"
   x1="32.119999"
   y1="-3829.7402"
   x2="27.92"
   y2="-3830.9402"
   gradientTransform="matrix(1,0,0,-1,-0.2,-3792.8999)">
		<stop
   offset="0.2"
   style="stop-color:#02131F"
   id="stop118" />
		<stop
   offset="0.9"
   style="stop-color:#02131F;stop-opacity:0"
   id="stop120" />
	</linearGradient>
	<path
   style="fill:url(#SVGID_00000047053199129369887990000001684073674508943001_);fill-opacity:0.8"
   d="m 31.7,33.3 c 0,-0.2 0,-0.2 -0.2,-0.2 v 0 L 7.3,46.9 c 0.6,0.5 1.4,0.5 2.1,0.2 l 22.5,-9.2 z"
   id="path123" />
	
		<linearGradient
   id="SVGID_00000159439786733555513590000000556906103174641804_"
   gradientUnits="userSpaceOnUse"
   x1="20.989"
   y1="-3835.3723"
   x2="20.389"
   y2="-3833.8723"
   gradientTransform="matrix(1,0,0,-1,-0.2,-3792.8999)">
		<stop
   offset="0"
   style="stop-color:#02131F"
   id="stop125" />
		<stop
   offset="0.1"
   style="stop-color:#02131F"
   id="stop127" />
		<stop
   offset="1"
   style="stop-color:#02131F;stop-opacity:0"
   id="stop129" />
	</linearGradient>
	<path
   style="opacity:0.8;fill:url(#SVGID_00000159439786733555513590000000556906103174641804_);enable-background:new"
   d="m 9.2,46.9 22.5,-9.1 v -4.4 c -0.6,1.5 -1.6,2.8 -3,3.6 v 0 L 9,46.8 8.1,47.1 c 0.4,0.1 0.8,0.1 1.1,-0.2 z"
   id="path132" />
	
		<linearGradient
   id="SVGID_00000005989237030215689210000003754890902856628638_"
   gradientUnits="userSpaceOnUse"
   x1="35.760399"
   y1="-3810.6035"
   x2="32.360401"
   y2="-3810.9934"
   gradientTransform="matrix(1,0,0,-1,-0.2,-3792.8999)">
		<stop
   offset="0.3"
   style="stop-color:#02131F"
   id="stop134" />
		<stop
   offset="0.8"
   style="stop-color:#02131F;stop-opacity:0"
   id="stop136" />
	</linearGradient>
	<path
   style="fill:url(#SVGID_00000005989237030215689210000003754890902856628638_)"
   d="m 32.5,31.7 v 0 c -0.2,0.2 -0.2,0.4 0.2,0.2 L 36.6,29.7 33,5.9 C 33,5.2 32.6,4.5 31.9,4.2 l 0.4,27.7 z"
   id="path139" />
	
		<linearGradient
   id="SVGID_00000038391791527492003540000003288336272255742081_"
   gradientUnits="userSpaceOnUse"
   x1="35.850101"
   y1="-3810.5405"
   x2="33.5401"
   y2="-3810.8406"
   gradientTransform="matrix(1,0,0,-1,-0.2,-3792.8999)">
		<stop
   offset="0.4"
   style="stop-color:#27343C"
   id="stop141" />
		<stop
   offset="1"
   style="stop-color:#3B474E;stop-opacity:0"
   id="stop143" />
	</linearGradient>
	<path
   style="fill:url(#SVGID_00000038391791527492003540000003288336272255742081_)"
   d="m 32.5,31.7 v 0 c -0.2,0.2 -0.2,0.4 0.2,0.2 L 36.6,29.7 33,5.9 C 33,5.2 32.6,4.5 31.9,4.2 l 0.4,27.7 z"
   id="path146" />
	
		<linearGradient
   id="SVGID_00000093886989261997273610000009062730010550427059_"
   gradientUnits="userSpaceOnUse"
   x1="-0.25650001"
   y1="-3826.3713"
   x2="27.6535"
   y2="-3842.4712"
   gradientTransform="matrix(1,0,0,-1,-0.2,-3792.8999)">
		<stop
   offset="0"
   style="stop-color:#24303A;stop-opacity:0"
   id="stop148" />
		<stop
   offset="0"
   style="stop-color:#25323B;stop-opacity:0"
   id="stop150" />
		<stop
   offset="0.1"
   style="stop-color:#27343C"
   id="stop152" />
	</linearGradient>
	<path
   style="fill:url(#SVGID_00000093886989261997273610000009062730010550427059_)"
   d="M 5.1,44.9 C 4.3,43.2 0.4,35.5 4.7,20.5 H 3 C 2.1,22.9 1.4,25.4 0.9,28 l -0.3,2.1 c -0.2,0.8 -0.3,1.6 -0.2,2.4 -0.2,3.3 0.3,6.5 1.5,9.6 1.4,5 4.3,9.5 8.2,12.9 3.6,3.1 7.9,5.1 12.6,5.8 C 22.1,60.6 10.3,55.6 5.1,44.9 Z"
   id="path155" />
	
		<linearGradient
   id="SVGID_00000031169703806622017830000005531493802280311728_"
   gradientUnits="userSpaceOnUse"
   x1="32"
   y1="-3830.8799"
   x2="32"
   y2="-3826.0801"
   gradientTransform="matrix(1,0,0,-1,-0.2,-3792.8999)">
		<stop
   offset="0.3"
   style="stop-color:#A5ABAF"
   id="stop157" />
		<stop
   offset="1"
   style="stop-color:#A5ABAF;stop-opacity:0"
   id="stop159" />
	</linearGradient>
	<path
   style="fill:url(#SVGID_00000031169703806622017830000005531493802280311728_)"
   d="m 32.3,33.1 h -1 c 0.2,0 0.2,0 0.2,0.2 v 4.6 h 0.2 v -4.6 c 0,-0.2 0,-0.4 0.2,-0.4 z"
   id="path162" />
	
		<linearGradient
   id="SVGID_00000098220260538546548130000005541294463185989309_"
   gradientUnits="userSpaceOnUse"
   x1="47.9161"
   y1="-3795.7998"
   x2="47.9161"
   y2="-3856.7998"
   gradientTransform="matrix(1,0,0,-1,-0.2,-3792.8999)">
		<stop
   offset="0"
   style="stop-color:#DEE0DD"
   id="stop164" />
		<stop
   offset="0"
   style="stop-color:#C5C9C7"
   id="stop166" />
		<stop
   offset="0"
   style="stop-color:#9EA4A5"
   id="stop168" />
		<stop
   offset="0"
   style="stop-color:#82898C"
   id="stop170" />
		<stop
   offset="0"
   style="stop-color:#71797D"
   id="stop172" />
		<stop
   offset="0"
   style="stop-color:#6B7378"
   id="stop174" />
		<stop
   offset="0.2"
   style="stop-color:#333F47"
   id="stop176" />
		<stop
   offset="0.5"
   style="stop-color:#27343C"
   id="stop178" />
		<stop
   offset="0.8"
   style="stop-color:#333F47"
   id="stop180" />
		<stop
   offset="1"
   style="stop-color:#434D54"
   id="stop182" />
	</linearGradient>
	<path
   style="fill:url(#SVGID_00000098220260538546548130000005541294463185989309_)"
   d="m 41.8,2.9 c 10.6,3.9 20.5,15 20.5,28.8 0.2,16.7 -13.1,30.4 -29.8,30.6 0,0 0,0 0,0 H 31.9 V 64 C 49.2,64.2 63.3,50.3 63.5,33 63.7,19.3 54.9,7.1 41.8,2.9 Z"
   id="path185" />
	
		<linearGradient
   id="SVGID_00000073710364826092258570000015475838138111980957_"
   gradientUnits="userSpaceOnUse"
   x1="57.367401"
   y1="-3801.5051"
   x2="43.877399"
   y2="-3821.3152"
   gradientTransform="matrix(1,0,0,-1,-0.2,-3792.8999)">
		<stop
   offset="0.7"
   style="stop-color:#27343C"
   id="stop187" />
		<stop
   offset="0.7"
   style="stop-color:#2B373F"
   id="stop189" />
		<stop
   offset="0.7"
   style="stop-color:#36424A"
   id="stop191" />
		<stop
   offset="0.7"
   style="stop-color:#49545B"
   id="stop193" />
		<stop
   offset="0.8"
   style="stop-color:#646D73;stop-opacity:0"
   id="stop195" />
		<stop
   offset="0.8"
   style="stop-color:#868D92;stop-opacity:0"
   id="stop197" />
		<stop
   offset="0.8"
   style="stop-color:#B0B5B8;stop-opacity:0"
   id="stop199" />
		<stop
   offset="0.8"
   style="stop-color:#E1E3E4;stop-opacity:0"
   id="stop201" />
		<stop
   offset="0.8"
   style="stop-color:#FFFFFF;stop-opacity:0"
   id="stop203" />
	</linearGradient>
	<path
   style="fill:url(#SVGID_00000073710364826092258570000015475838138111980957_)"
   d="M 58.7,20.7 C 54.6,11.1 45.5,4.5 35.1,3.6 h -0.2 c 12,2.3 19.9,10.1 22.5,18.4 v 0 c 1.2,3.3 1.8,6.8 1.9,10.3 0,3.8 -0.8,7.6 -2.3,11.1 -0.1,0.5 -0.1,1.1 -0.3,1.1 h 1.7 C 62.2,37 62.3,28.3 58.7,20.7 Z"
   id="path206" />
	<path
   class="st18"
   d="M 2.1,32.7 C 2,16.3 15.3,3 31.7,2.9 c 0.1,0 0.1,0 0.2,0 v 0 c 16.4,-0.1 29.7,13.2 29.8,29.6 0,0.1 0,0.1 0,0.2 v 0 C 61.5,49 48.2,62.2 31.9,62.3 v 0 C 15.6,62.2 2.3,49 2.1,32.7 Z M 11.4,12 C 6,17.5 2.9,25 2.8,32.7 v 0 c 0,7.7 3,15 8.5,20.4 v 0 c 5.5,5.5 12.9,8.5 20.6,8.5 v 0 c 7.7,0 15.1,-3 20.5,-8.5 v 0 c 5.4,-5.4 8.4,-12.8 8.4,-20.4 v 0 C 60.6,25 57.6,17.7 52.4,12 v 0 C 46.9,6.6 39.6,3.5 31.9,3.4 v 0 C 24.2,3.4 16.8,6.5 11.4,12 Z"
   id="path208" />
	<path
   class="st19"
   d="m 7.9,45.3 v 0 l 20.4,-14.7 3.2,1.3 c 0.2,0.2 0.2,-0.2 0.2,-0.2 l -2.6,-1.8 c -0.3,-0.2 -0.4,-0.5 -0.4,-0.8 l 2.4,-24 C 31,5.2 31,5.4 31,5.5 30.8,5.6 30.8,5.8 30.8,6 l -3.6,23.9 -19.1,15 z"
   id="path210" />
</g>

</svg>
