------------------------------------------------------------------------
r1185842 | mlaurent | 2010-10-15 00:40:46 +1300 (Fri, 15 Oct 2010) | 2 lines

Backport: fix mem leak

------------------------------------------------------------------------
