2008-01-12 20:28 +0000 [r760501]  mlaurent

	* branches/KDE/4.0/kdeadmin/kuser/ku_configdlg.cpp,
	  branches/KDE/4.0/kdeadmin/kpackage/kpConfig.cpp: Backport: Fix
	  help button

2008-01-22 13:31 +0000 [r764741]  lukas

	* branches/KDE/4.0/kdeadmin/kuser/ku_main.cpp: add LDAP catalog

